{
  "storage": {
    "input": {
      "tables": [
        {
          "source": "out.c-test.sample_training",
          "destination": "input.csv",
          "where_column": "",
          "where_values": [],
          "where_operator": "eq",
          "columns": []
        }
      ],
      "files": []
    }
  },
  "parameters": {
    "print_rows": true
  },
  "image_parameters": {},
  "action": "run",
  "authorization": {}
}